Project 1: Wrangling, Exploration, Visualization
…
anti_join(healthinsurance, usdeath, by = "State") %>% distinct(State)

## # A tibble: 0 x 1
## #  with 1 variable: State <chr>

anti_join(usdeath, healthinsurance, by = "State") %>% distinct(State)

## # A tibble: 1 x 1
##   State      
##   <chr>      
## 1 Puerto Rico

semi_join(healthinsurance, usdeath, by = "State") %>% distinct(State)

## # A tibble: 52 x 1
##    State               
##    <chr>               
##  1 Alabama             
##  2 Alaska              
##  3 Arizona             
##  4 Arkansas            
##  5 California          
##  6 Colorado            
##  7 Connecticut         
##  8 Delaware            
##  9 District of Columbia
## 10 Florida             
## #  with 42 more rows
…
